Mapping the Soul’s Journey: A Text Analysis of the Egyptian Book of the Dead
…
# Check
death_book |>
  filter(str_detect(str_trim(text), regex("^CHAPTERS? [IVXLC]")) & 
         !str_detect(text, "=")) |>
  select(linenumber, chapter, text)

# A tibble: 181 × 3
   linenumber chapter text         
        <int>   <int> <chr>        
 1       1063       1 CHAPTER I.   
 2       1450       2 CHAPTER II.  
 3       1486       3 CHAPTER III. 
 4       1523       4 CHAPTER IV.  
 5       1628       5 CHAPTER VI.  
 6       1663       6 CHAPTER VII. 
 7       1710       7 CHAPTER VIII.
 8       1753       8 CHAPTER IX.  
 9       1780       9 CHAPTER X.   
10       1795      10 CHAPTER XI.  
# ℹ 171 more rows
…
# Lines mentioning notes/footnote
death_lines |>
  filter(str_detect(text, regex("footnote|\\bнote\\b", ignore_case = TRUE))) |>
  select(linenumber, chapter, text)

# A tibble: 0 × 3
# ℹ 3 variables: linenumber <int>, chapter <int>, text <chr>

# Checking for editorial content
death_lines |>
  filter(str_detect(str_trim(text), regex("^\\d+\\."))) |>
  select(linenumber, chapter, text) |>
  head(30)

# A tibble: 30 × 3
   linenumber chapter text                                                      
        <int>   <int> <chr>                                                     
 1       3062      16 1. Oh Thoth, who makest Osiris triumphant over his advers…
 2       3072      16 2. Oh Thoth who makest Osiris triumphant over his adversa…
 3       3080      16 3. Oh Thoth who makest Osiris triumphant over his adversa…
 4       3087      16 4. Oh Thoth, who makest Osiris triumphant over his advers…
 5       3095      16 5. Oh Thoth, who makest Osiris triumphant over his advers…
 6       3102      16 6. Oh Thoth, who makest Osiris triumphant over his advers…
 7       3109      16 7. Oh Thoth, who makest Osiris triumphant over his advers…
 8       3118      16 8. Oh Thoth, who makest Osiris triumphant over his advers…
 9       3127      16 9. Oh Thoth, who makest Osiris triumphant over his advers…
10       3136      16 10. Oh Thoth, who makest Osiris triumphant over his adver…
# ℹ 20 more rows
…
Tokenise

tidy_death <- death_lines |>
  unnest_tokens(word, text) |>
  filter(str_detect(word, "^[a-z]+$")) |>
  anti_join(stop_words) |>
  anti_join(custom_stops)

Joining with `by = join_by(word)`
Joining with `by = join_by(word)`

tidy_death

# A tibble: 18,998 × 7
   section nword nchar linenumber chapter notes_start word        
   <chr>   <int> <int>      <int>   <int>       <int> <chr>       
 1 f1       3964 22416       1065       1           0 beginning   
 2 f1       3964 22416       1065       1           0 coming      
 3 f1       3964 22416       1065       1           0 day         
 4 f1       3964 22416       1065       1           0 bring       
 5 f1       3964 22416       1065       1           0 resurrection
 6 f1       3964 22416       1065       1           0 glory       
 7 f1       3964 22416       1065       1           0 coming      
 8 f1       3964 22416       1065       1           0 entering    
 9 f1       3964 22416       1065       1           0 amenta      
10 f1       3964 22416       1065       1           0 day         
# ℹ 18,988 more rows

Chapter Length

tidy_death |>
  count(chapter, sort = FALSE) |>
  arrange(n) |>
  head(40)

# A tibble: 40 × 2
   chapter     n
     <int> <int>
 1     123     1
 2      73     2
 3     127     2
 4      48     3
 5     110     3
 6     180     5
 7      61     7
 8     107     8
 9       4    10
10     103    10
# ℹ 30 more rows
…
# Missing chapters
missing_numerals <- setdiff(expected_numerals, detected_numerals)
missing_numerals

[1] "V"       "XVI"     "LXII"    "CXLIV"   "CL"      "CLXXXVI"

Five chapters were not correctly identified: V, XVI, LXXI, CXLIV, CL, CLXXXVI. Due to the size and nature of the text, this is an understandable misallocation, however, it should be noted that the chapter numbers quoted by R may not exactly align with the chapter numbers from the text.

Count the frequencies

tidy_death |> 
  count(word, sort = TRUE) 

# A tibble: 4,068 × 2
   word       n
   <chr>  <int>
 1 osiris   350
 2 gods     335
 3 ra       330
 4 god      234
 5 horus    186
 6 lord     175
 7 day      165
 8 earth    146
 9 heaven   122
10 heart    116
# ℹ 4,058 more rows
…
Sentiment Analysis

Even though TF-IDF is good at showing the distinctive vocabulary of the book, tells us nothing about the emotional tone of the text. For a funerary document whose stated purpose is to guide and reassure the dead, the emotional register is as analytically meaningful as the words themselves. That is why sentiment analysis is chosen to use as the second technique. Furthermore, the NRC lexicon was selected over Bing or AFINN because it distinguishes between eight discrete emotions.

1) TF-IDF

Set-up

chapter_words <- tidy_death |>
  count(chapter, word, sort = TRUE)

chapter_words

# A tibble: 13,025 × 3
   chapter word            n
     <int> <chr>       <int>
 1     122 appearance     44
 2     122 makest         42
 3      16 osiris         36
 4      16 adversaries    34
 5     128 osiris         31
 6      16 triumphant     30
 7      16 gods           29
 8     144 domain         27
 9      68 possession     26
10      16 circle         24
# ℹ 13,015 more rows
…
chapter_words <- chapter_words |>
  filter(chapter %in% valid_chapters)

Scores

# TF-IDF
chapter_tfidf <- chapter_words |>
  bind_tf_idf(word, chapter, n)

# Highest scoring words
chapter_tfidf |>
  arrange(desc(tf_idf))

# A tibble: 12,728 × 6
   chapter word             n     tf   idf tf_idf
     <int> <chr>        <int>  <dbl> <dbl>  <dbl>
 1      37 merta            3 0.15    3.94  0.591
 2      74 faint            4 0.148   3.65  0.541
 3      88 crocodile        3 0.15    3.43  0.514
 4     151 tat              4 0.118   3.94  0.463
 5     136 kindled          4 0.105   4.34  0.457
 6      95 assault          2 0.1     4.34  0.434
 7     112 nechen           9 0.0928  4.34  0.403
 8       9 victoriously     2 0.0769  5.04  0.387
 9      12 adore            2 0.0952  3.94  0.375
10      68 possession      26 0.183   2.04  0.374
# ℹ 12,718 more rows
…
freq_by_rank <- tidy_death |>
  count(chapter, word, sort = TRUE) |>
  group_by(chapter) |>
  # term frequency = times word appears / total words in chapter
  mutate(
    total = sum(n),
    term_frequency = n / total,
    # rank within chapter — rank 1 = most frequent word in that chapter
    rank = row_number()
  ) |>
  ungroup()

freq_by_rank

# A tibble: 13,025 × 6
   chapter word            n total term_frequency  rank
     <int> <chr>       <int> <int>          <dbl> <int>
 1     122 appearance     44   860         0.0512     1
 2     122 makest         42   860         0.0488     2
 3      16 osiris         36   481         0.0748     1
 4      16 adversaries    34   481         0.0707     2
 5     128 osiris         31   366         0.0847     1
 6      16 triumphant     30   481         0.0624     3
 7      16 gods           29   481         0.0603     4
 8     144 domain         27   638         0.0423     1
 9      68 possession     26   142         0.183      1
10      16 circle         24   481         0.0499     5
# ℹ 13,015 more rows
…
